…
    )
    study_subjects %>%
      collect() %>%
      mutate(ethnic_group = case_when(
        str_detect(ethnicity, "^ASIAN") ~ "ASIAN",
        str_detect(ethnicity, "^BLACK") ~ "BLACK",
        str_detect(ethnicity, "^HISPANIC") ~ "HISPANIC",
        str_detect(ethnicity, "^WHITE") ~ "WHITE",
        ethnicity %in% unknown_ethnicity ~ NA_character_,
        TRUE ~ NA_character_
      )) %>%
      select(subject_id, gender, ethnic_group) %>%
      print() -> study_subjects

    ## # A tibble: 1,203 x 3
    ##    subject_id gender ethnic_group
    ##         <int> <chr>  <chr>       
    ##  1         24 M      WHITE       
    ##  2         42 M      <NA>        
    ##  3         53 M      <NA>        
    ##  4         73 F      WHITE       
    ##  5        111 F      WHITE       
    ##  6        123 M      HISPANIC    
    ##  7        154 M      WHITE       
    ##  8        158 M      WHITE       
    ##  9        160 F      WHITE       
    ## 10        194 M      BLACK       
    ## # … with 1,193 more rows
…
    most <- function(x) {
      if (all(is.na(x))) return(NA_character_)
      y <- table(x, useNA = "no")
      if (length(which(y == max(y))) > 1) return(NA_character_)
      return(names(y)[which.max(y)])
    }
    study_subjects %>%
      group_by(subject_id) %>%
      summarize(ethnic_group = most(ethnic_group)) %>%
      ungroup() %>%
      mutate(ethnic_group = ifelse(is.na(ethnic_group), "UNKNOWN", ethnic_group)) %>%
      print() -> subject_ethnic_groups

    ## # A tibble: 1,188 x 2
    ##    subject_id ethnic_group
    ##  *      <int> <chr>       
    ##  1         24 WHITE       
    ##  2         42 UNKNOWN     
    ##  3         53 UNKNOWN     
    ##  4         73 WHITE       
    ##  5        111 WHITE       
    ##  6        123 HISPANIC    
    ##  7        154 WHITE       
    ##  8        158 WHITE       
    ##  9        160 WHITE       
    ## 10        194 BLACK       
    ## # … with 1,178 more rows

    study_subjects %>%
      select(subject_id, gender) %>%
      left_join(subject_ethnic_groups, by = "subject_id") %>%
      print() -> study_subjects

    ## # A tibble: 1,203 x 3
    ##    subject_id gender ethnic_group
    ##         <int> <chr>  <chr>       
    ##  1         24 M      WHITE       
    ##  2         42 M      UNKNOWN     
    ##  3         53 M      UNKNOWN     
    ##  4         73 F      WHITE       
    ##  5        111 F      WHITE       
    ##  6        123 M      HISPANIC    
    ##  7        154 M      WHITE       
    ##  8        158 M      WHITE       
    ##  9        160 F      WHITE       
    ## 10        194 M      BLACK       
    ## # … with 1,193 more rows
…
